{
  "t": [
    {
      "x": "13282713",
      "y": "52502478",
      "n": "     S41",
      "i": "84/59103/18/19/86",
      "d": "7",
      "c": "1",
      "rd": "12.03.18",
      "rt": "0",
      "l": "Ringbahn S 41",
      "p": [
        {
          "x": "13282713",
          "y": "52502478",
          "t": "0",
          "d": "9"
        },
        {
          "x": "13282605",
          "y": "52502748",
          "t": "2000",
          "d": "8"
        },
        {
          "x": "13282533",
          "y": "52503026",
          "t": "4000",
          "d": "8"
        },
        {
          "x": "13282470",
          "y": "52503305",
          "t": "6000",
          "d": "8"
        },
        {
          "x": "13282434",
          "y": "52503575",
          "t": "8000",
          "d": "8"
        },
        {
          "x": "13282407",
          "y": "52503853",
          "t": "10000",
          "d": "8"
        },
        {
          "x": "13282389",
          "y": "52504132",
          "t": "12000",
          "d": "7"
        },
        {
          "x": "13282398",
          "y": "52504411",
          "t": "14000",
          "d": "7"
        },
        {
          "x": "13282416",
          "y": "52504689",
          "t": "16000",
          "d": "7"
        },
        {
          "x": "13282452",
          "y": "52504950",
          "t": "18000",
          "d": "7"
        },
        {
          "x": "13282488",
          "y": "52505229",
          "t": "20000",
          "d": "7"
        },
        {
          "x": "13282533",
          "y": "52505507",
          "t": "22000",
          "d": "7"
        },
        {
          "x": "13282578",
          "y": "52505786",
          "t": "24000",
          "d": "7"
        },
        {
          "x": "13282641",
          "y": "52506065",
          "t": "26000",
          "d": "7"
        },
        {
          "x": "13282722",
          "y": "52506334",
          "t": "28000",
          "d": "7"
        },
        {
          "x": "13282803",
          "y": "52506613",
          "t": "30000",
          "d": "7"
        }
      ]
    },
    {
      "x": "13300439",
      "y": "52504249",
      "n": "      S9",
      "i": "84/33940/18/30/86",
      "d": "17",
      "c": "1",
      "rd": "12.03.18",
      "rt": "2",
      "l": "S Spandau Bhf (Berlin)",
      "p": [
        {
          "x": "13300439",
          "y": "52504249",
          "t": "0",
          "d": "17"
        },
        {
          "x": "13300053",
          "y": "52504168",
          "t": "2000",
          "d": "17"
        },
        {
          "x": "13299675",
          "y": "52504078",
          "t": "4000",
          "d": "18"
        },
        {
          "x": "13299307",
          "y": "52503988",
          "t": "6000",
          "d": "17"
        },
        {
          "x": "13298929",
          "y": "52503907",
          "t": "8000",
          "d": "17"
        },
        {
          "x": "13298543",
          "y": "52503817",
          "t": "10000",
          "d": "17"
        },
        {
          "x": "13298165",
          "y": "52503737",
          "t": "12000",
          "d": "17"
        },
        {
          "x": "13297779",
          "y": "52503647",
          "t": "14000",
          "d": "18"
        },
        {
          "x": "13297410",
          "y": "52503557",
          "t": "16000",
          "d": "17"
        },
        {
          "x": "13297015",
          "y": "52503467",
          "t": "18000",
          "d": "17"
        },
        {
          "x": "13296637",
          "y": "52503395",
          "t": "20000",
          "d": "17"
        },
        {
          "x": "13296259",
          "y": "52503323",
          "t": "22000",
          "d": "17"
        },
        {
          "x": "13295873",
          "y": "52503251",
          "t": "24000",
          "d": "17"
        },
        {
          "x": "13295495",
          "y": "52503170",
          "t": "26000",
          "d": "17"
        },
        {
          "x": "13295091",
          "y": "52503107",
          "t": "28000",
          "d": "17"
        },
        {
          "x": "13294704",
          "y": "52503044",
          "t": "30000",
          "d": "17"
        }
      ]
    },
    {
      "x": "13270308",
      "y": "52495808",
      "n": "      S7",
      "i": "84/33422/18/46/86",
      "d": "3",
      "c": "1",
      "rd": "12.03.18",
      "rt": "2",
      "l": "S Ahrensfelde Bhf (Berlin)",
      "p": [
        {
          "x": "13270308",
          "y": "52495808",
          "t": "0",
          "d": "4"
        },
        {
          "x": "13270541",
          "y": "52495988",
          "t": "2000",
          "d": "4"
        },
        {
          "x": "13270775",
          "y": "52496168",
          "t": "4000",
          "d": "4"
        },
        {
          "x": "13271009",
          "y": "52496347",
          "t": "6000",
          "d": "4"
        },
        {
          "x": "13271243",
          "y": "52496518",
          "t": "8000",
          "d": "4"
        },
        {
          "x": "13271485",
          "y": "52496680",
          "t": "10000",
          "d": "4"
        },
        {
          "x": "13271737",
          "y": "52496860",
          "t": "12000",
          "d": "4"
        },
        {
          "x": "13271989",
          "y": "52497031",
          "t": "14000",
          "d": "3"
        },
        {
          "x": "13272267",
          "y": "52497174",
          "t": "16000",
          "d": "3"
        },
        {
          "x": "13272546",
          "y": "52497318",
          "t": "18000",
          "d": "3"
        },
        {
          "x": "13272861",
          "y": "52497453",
          "t": "20000",
          "d": "2"
        },
        {
          "x": "13273184",
          "y": "52497561",
          "t": "22000",
          "d": "2"
        },
        {
          "x": "13273517",
          "y": "52497660",
          "t": "24000",
          "d": "2"
        },
        {
          "x": "13273849",
          "y": "52497759",
          "t": "26000",
          "d": "2"
        },
        {
          "x": "13274182",
          "y": "52497858",
          "t": "28000",
          "d": "2"
        },
        {
          "x": "13274515",
          "y": "52497965",
          "t": "30000",
          "d": "2"
        }
      ]
    },
    {
      "x": "13316422",
      "y": "52505292",
      "n": "      S5",
      "i": "84/33291/18/19/86",
      "d": "16",
      "c": "1",
      "rd": "12.03.18",
      "rt": "2",
      "l": "S Westkreuz (Berlin)",
      "p": [
        {
          "x": "13316422",
          "y": "52505292",
          "t": "0",
          "d": "15"
        },
        {
          "x": "13316126",
          "y": "52505301",
          "t": "2000",
          "d": "15"
        },
        {
          "x": "13315829",
          "y": "52505319",
          "t": "4000",
          "d": "15"
        },
        {
          "x": "13315541",
          "y": "52505337",
          "t": "6000",
          "d": "15"
        },
        {
          "x": "13315245",
          "y": "52505355",
          "t": "8000",
          "d": "15"
        },
        {
          "x": "13314957",
          "y": "52505364",
          "t": "10000",
          "d": "15"
        },
        {
          "x": "13314660",
          "y": "52505382",
          "t": "12000",
          "d": "15"
        },
        {
          "x": "13314364",
          "y": "52505400",
          "t": "14000",
          "d": "15"
        },
        {
          "x": "13314076",
          "y": "52505417",
          "t": "16000",
          "d": "15"
        },
        {
          "x": "13313779",
          "y": "52505444",
          "t": "18000",
          "d": "15"
        },
        {
          "x": "13313483",
          "y": "52505462",
          "t": "20000",
          "d": "15"
        },
        {
          "x": "13313186",
          "y": "52505471",
          "t": "22000",
          "d": "15"
        },
        {
          "x": "13312881",
          "y": "52505489",
          "t": "24000",
          "d": "15"
        },
        {
          "x": "13312584",
          "y": "52505498",
          "t": "26000",
          "d": "15"
        },
        {
          "x": "13312296",
          "y": "52505516",
          "t": "28000",
          "d": "15"
        },
        {
          "x": "13312000",
          "y": "52505525",
          "t": "30000",
          "d": "15"
        }
      ]
    },
    {
      "x": "13290147",
      "y": "52496698",
      "n": "     S46",
      "i": "84/32667/18/20/86",
      "d": "11",
      "c": "1",
      "rd": "12.03.18",
      "rt": "0",
      "l": "S Westend (Berlin)",
      "p": [
        {
          "x": "13290147",
          "y": "52496698",
          "t": "0"
        },
        {
          "x": "13290147",
          "y": "52496698",
          "t": "2000"
        },
        {
          "x": "13290147",
          "y": "52496698",
          "t": "4000"
        },
        {
          "x": "13290147",
          "y": "52496698",
          "t": "6000"
        },
        {
          "x": "13290147",
          "y": "52496698",
          "t": "8000"
        },
        {
          "x": "13290147",
          "y": "52496698",
          "t": "10000"
        },
        {
          "x": "13290147",
          "y": "52496698",
          "t": "12000"
        },
        {
          "x": "13290147",
          "y": "52496698",
          "t": "14000"
        },
        {
          "x": "13290147",
          "y": "52496698",
          "t": "16000"
        },
        {
          "x": "13290147",
          "y": "52496698",
          "t": "18000"
        },
        {
          "x": "13290147",
          "y": "52496698",
          "t": "20000"
        },
        {
          "x": "13290147",
          "y": "52496698",
          "t": "22000"
        },
        {
          "x": "13290147",
          "y": "52496698",
          "t": "24000"
        },
        {
          "x": "13290147",
          "y": "52496698",
          "t": "26000"
        },
        {
          "x": "13290147",
          "y": "52496698",
          "t": "28000"
        },
        {
          "x": "13290147",
          "y": "52496698",
          "t": "30000"
        }
      ]
    }
  ],
  "ts": "13:54:18",
  "x0": "13260160",
  "x1": "13316766",
  "y1": "52491798",
  "y2": "52507996",
  "n": "5"
}
